{
  "leaspy_version": "1.2.0",
  "name": "logistic",
  "features": [
    "Feature 1",
    "Feature 2",
    "Feature 3",
    "Feature 4"
  ],
  "dimension": 4,
  "source_dimension": 2,
  "noise_model": "gaussian_diagonal",
  "parameters": {
    "g": [
      0.12066309154033661,
      3.454559326171875,
      2.6864049434661865,
      2.0254173278808594
    ],
    "v0": [
      -3.3943228721618652,
      -4.606308460235596,
      -4.351790428161621,
      -4.132989406585693
    ],
    "betas": [
      [
        0.108571857213974,
        0.0034173510503023863
      ],
      [
        0.019593510776758194,
        0.024317467585206032
      ],
      [
        0.01729056052863598,
        0.055982284247875214
      ]
    ],
    "tau_mean": 78.99938201904297,
    "tau_std": 7.870596408843994,
    "xi_mean": 0.0,
    "xi_std": 0.782155454158783,
    "sources_mean": 0.0,
    "sources_std": 1.0,
    "noise_std": [
      0.0745452269911766,
      0.04803546145558357,
      0.0827169418334961,
      0.07639255374670029
    ],
    "mixing_matrix": [
      [
        -0.11058615148067474,
        -0.017605775967240334
      ],
      [
        0.008668176829814911,
        -0.012487730011343956
      ],
      [
        -0.012274018488824368,
        0.01924402453005314
      ],
      [
        0.003953850362449884,
        0.05385902523994446
      ]
    ]
  }
}