{
  "leaspy_version": "1.1.1-dev",
  "name": "logistic",
  "features": [
    "Y0",
    "Y1",
    "Y2",
    "Y3"
  ],
  "dimension": 4,
  "source_dimension": 2,
  "noise_model": "gaussian_diagonal",
  "parameters": {
    "g": [
      0.05097980052232742,
      2.8941071033477783,
      2.581003189086914,
      1.1241041421890259
    ],
    "v0": [
      -4.188178062438965,
      -4.9868059158325195,
      -4.980029582977295,
      -4.044694900512695
    ],
    "betas": [
      [
        -0.06696059554815292,
        -0.027208395302295685
      ],
      [
        0.034046247601509094,
        0.011459635570645332
      ],
      [
        0.03386224806308746,
        -0.0005018454394303262
      ]
    ],
    "tau_mean": 78.56326293945312,
    "tau_std": 5.010487079620361,
    "xi_mean": 0.0,
    "xi_std": 0.7889860272407532,
    "sources_mean": 0.0,
    "sources_std": 1.0,
    "noise_std": [
      0.11651681363582611,
      0.0750042051076889,
      0.09876715391874313,
      0.2477712333202362
    ],
    "mixing_matrix": [
      [
        0.03483932092785835,
        0.01757621020078659
      ],
      [
        -0.03936373442411423,
        -0.013285961002111435
      ],
      [
        0.05007951706647873,
        0.019548315554857254
      ],
      [
        0.03896511346101761,
        0.0020725163631141186
      ]
    ]
  }
}