{
  "leaspy_version": "1.1.1-dev",
  "name": "logistic_parallel",
  "features": [
    "Y0",
    "Y1",
    "Y2",
    "Y3"
  ],
  "dimension": 4,
  "source_dimension": 2,
  "noise_model": "gaussian_scalar",
  "parameters": {
    "g": [
      1.6101518869400024
    ],
    "tau_mean": 77.9063949584961,
    "tau_std": 5.365817070007324,
    "xi_mean": -3.6736185550689697,
    "xi_std": 0.5962775945663452,
    "sources_mean": 0.0,
    "sources_std": 1.0,
    "noise_std": 0.15763531625270844,
    "deltas": [
      -0.08477988839149475,
      -0.006497976835817099,
      -0.010492337867617607
    ],
    "betas": [
      [
        0.13149498403072357,
        -0.02266966551542282
      ],
      [
        0.12278436124324799,
        -0.04107869789004326
      ],
      [
        -0.013486472889780998,
        -0.08717114478349686
      ]
    ],
    "mixing_matrix": [
      [
        -0.12231490015983582,
        0.07517866045236588
      ],
      [
        0.08881977200508118,
        0.0035598890390247107
      ],
      [
        0.08231920748949051,
        -0.016207514330744743
      ],
      [
        -0.0540599450469017,
        -0.06223338842391968
      ]
    ]
  }
}