{
  "name": "mean_real",
  "seed": 0,
  "algorithm_initialization_method": null,
  "parameters": {
    "n_burn_in_iter": 500,
    "n_iter": 1000,
    "eps": 0.005,
    "L": 10,
    "sampler_ind": "Gibbs",
    "sampler_pop": "Gibbs",
    "annealing": {
      "do_annealing": false,
      "initial_temperature": 10,
      "n_plateau": 10,
      "n_iter": null
    }
  }
}
